{"failedCount":0,"prefixedPath":"classpath:examples\/users\/getCall.feature","packageQualifiedName":"examples.users.getCall","loopIndex":-1,"relativePath":"examples\/users\/getCall.feature","scenarioResults":[{"sectionIndex":0,"stepResults":[{"result":{"nanos":5887500,"millis":5.8875,"status":"passed"},"step":{"background":true,"line":5,"prefix":"*","index":0,"text":"url 'https:\/\/reqres.in'"},"stepLog":"10:36:40.304 karate.env system property was: null \n"},{"result":{"nanos":361026300,"millis":361.0263,"status":"passed"},"step":{"background":true,"line":6,"prefix":"*","index":1,"text":"def eval1 = call read('eval.feature')"},"callResults":[{"failedCount":0,"prefixedPath":"classpath:examples\/users\/eval.feature","packageQualifiedName":"examples.users.eval","loopIndex":-1,"relativePath":"examples\/users\/eval.feature","scenarioResults":[{"sectionIndex":0,"stepResults":[{"result":{"nanos":241499300,"millis":241.4993,"status":"passed"},"step":{"endLine":14,"line":5,"prefix":"*","docString":"var f= function(v){ return v * v}\nvar nums= [0,1,2,3,4]\nvar sqares = []\nfor(var n in nums) {\n    sqares.push(f(n))\n}\nkarate.set('temp',sqares)","index":0,"text":"eval"}},{"result":{"nanos":46540400,"millis":46.5404,"status":"passed"},"step":{"line":15,"prefix":"*","index":1,"text":"match temp == [0,1,4,9,16]"}}],"executorName":"pool-1-thread-1","line":4,"name":"Eval Demo","description":"","durationMillis":288.0397,"startTime":1628831200466,"failed":false,"refId":"[1:4]","endTime":1628831200755,"exampleIndex":-1}],"callDepth":1,"name":"Eval funciton","description":"","resultDate":"2021-08-13 10:36:49 AM","durationMillis":288.0397,"passedCount":1}]},{"result":{"nanos":845200,"millis":0.8452,"status":"passed"},"step":{"line":9,"prefix":"Given","index":0,"text":"path \"\/api\/users?page=2\""}},{"result":{"nanos":7588961200,"millis":7588.9612,"status":"passed"},"step":{"line":10,"prefix":"When","index":1,"text":"method GET"},"stepLog":"10:36:45.375 request:\n1 > GET https:\/\/reqres.in\/api\/users%3Fpage=2\n1 > Host: reqres.in\n1 > Connection: Keep-Alive\n1 > User-Agent: Apache-HttpClient\/4.5.13 (Java\/11.0.12)\n1 > Accept-Encoding: gzip,deflate\n\n\n10:36:48.341 response time in milliseconds: 2965\n1 < 200\n1 < Date: Fri, 13 Aug 2021 05:06:49 GMT\n1 < Content-Type: application\/json; charset=utf-8\n1 < Transfer-Encoding: chunked\n1 < Connection: keep-alive\n1 < x-powered-by: Express\n1 < access-control-allow-origin: *\n1 < etag: W\/\"2c1-N6Rqerxquq2kgQhL51EiSg4x0R8\"\n1 < via: 1.1 vegur\n1 < Cache-Control: max-age=14400\n1 < CF-Cache-Status: HIT\n1 < Age: 5996\n1 < Expect-CT: max-age=604800, report-uri=\"https:\/\/report-uri.cloudflare.com\/cdn-cgi\/beacon\/expect-ct\"\n1 < Report-To: {\"endpoints\":[{\"url\":\"https:\\\/\\\/a.nel.cloudflare.com\\\/report\\\/v3?s=jN2ERHqkdPPt7sxSpmeb6g4pZ9154jF52PekuIW4gps%2BYOlbcWFOo9OY0HqhAN4tRLbZVrHOgTP74VhEn12GiHLtKXA4dGXQrdphVsFggU2hxLa8Rz8aKSK3lzM%3D\"}],\"group\":\"cf-nel\",\"max_age\":604800}\n1 < NEL: {\"success_fraction\":0,\"report_to\":\"cf-nel\",\"max_age\":604800}\n1 < Vary: Accept-Encoding\n1 < Server: cloudflare\n1 < CF-RAY: 67df6a962e7c1d99-BLR\n1 < alt-svc: h3-27=\":443\"; ma=86400, h3-28=\":443\"; ma=86400, h3-29=\":443\"; ma=86400, h3=\":443\"; ma=86400\n{\"page\":1,\"per_page\":6,\"total\":12,\"total_pages\":2,\"data\":[{\"id\":1,\"name\":\"cerulean\",\"year\":2000,\"color\":\"#98B2D1\",\"pantone_value\":\"15-4020\"},{\"id\":2,\"name\":\"fuchsia rose\",\"year\":2001,\"color\":\"#C74375\",\"pantone_value\":\"17-2031\"},{\"id\":3,\"name\":\"true red\",\"year\":2002,\"color\":\"#BF1932\",\"pantone_value\":\"19-1664\"},{\"id\":4,\"name\":\"aqua sky\",\"year\":2003,\"color\":\"#7BC4C4\",\"pantone_value\":\"14-4811\"},{\"id\":5,\"name\":\"tigerlily\",\"year\":2004,\"color\":\"#E2583E\",\"pantone_value\":\"17-1456\"},{\"id\":6,\"name\":\"blue turquoise\",\"year\":2005,\"color\":\"#53B0AE\",\"pantone_value\":\"15-5217\"}],\"support\":{\"url\":\"https:\/\/reqres.in\/#support-heading\",\"text\":\"To keep ReqRes free, contributions towards server costs are appreciated!\"}}\n"},{"result":{"nanos":50300,"millis":0.0503,"status":"passed"},"step":{"line":11,"prefix":"Then","index":2,"text":"status 200"}},{"result":{"nanos":2008400,"millis":2.0084,"status":"passed"},"step":{"line":12,"prefix":"*","index":3,"text":"def userId = response.page"}},{"result":{"nanos":154007400,"millis":154.0074,"status":"passed"},"step":{"line":13,"prefix":"*","index":4,"text":"def callOnce = callonce read('JsonValidation.feature')"},"stepLog":"10:36:48.504 << lock released, cached callonce: read('JsonValidation.feature')\n","callResults":[{"failedCount":0,"prefixedPath":"classpath:examples\/users\/JsonValidation.feature","packageQualifiedName":"examples.users.JsonValidation","loopIndex":-1,"relativePath":"examples\/users\/JsonValidation.feature","scenarioResults":[{"sectionIndex":0,"stepResults":[{"result":{"nanos":1389100,"millis":1.3891,"status":"passed"},"step":{"background":true,"line":5,"prefix":"*","index":0,"text":"url 'https:\/\/reqres.in\/api\/users\/'"},"stepLog":"10:36:48.355 >> lock acquired, begin callonce: read('JsonValidation.feature')\n"},{"result":{"nanos":660700,"millis":0.6607,"status":"passed"},"step":{"line":7,"prefix":"Given","index":0,"text":"url 'https:\/\/reqres.in\/api\/users\/2'"}},{"result":{"nanos":104604400,"millis":104.6044,"status":"passed"},"step":{"line":8,"prefix":"When","index":1,"text":"method GET"},"stepLog":"10:36:48.392 request:\n1 > GET https:\/\/reqres.in\/api\/users\/2\n1 > Host: reqres.in\n1 > Connection: Keep-Alive\n1 > User-Agent: Apache-HttpClient\/4.5.13 (Java\/11.0.12)\n1 > Accept-Encoding: gzip,deflate\n\n\n10:36:48.491 response time in milliseconds: 98\n1 < 200\n1 < Date: Fri, 13 Aug 2021 05:06:50 GMT\n1 < Content-Type: application\/json; charset=utf-8\n1 < Transfer-Encoding: chunked\n1 < Connection: keep-alive\n1 < x-powered-by: Express\n1 < access-control-allow-origin: *\n1 < etag: W\/\"118-pbdwwFo9SKNhD3Lx5iHJyngpq00\"\n1 < via: 1.1 vegur\n1 < Cache-Control: max-age=14400\n1 < CF-Cache-Status: HIT\n1 < Age: 2383\n1 < Expect-CT: max-age=604800, report-uri=\"https:\/\/report-uri.cloudflare.com\/cdn-cgi\/beacon\/expect-ct\"\n1 < Report-To: {\"endpoints\":[{\"url\":\"https:\\\/\\\/a.nel.cloudflare.com\\\/report\\\/v3?s=VE7iwqWNlfVFhHoawxpegL8S5l6sClLX9mI5M5AEhpm6zsf%2Fe3agJTBONYgIArsEhcXrlwAUnuln7XWitya%2BtqFKmlvdUQSrig1E9doHwToLjT5gtW9OnvW5LCQ%3D\"}],\"group\":\"cf-nel\",\"max_age\":604800}\n1 < NEL: {\"success_fraction\":0,\"report_to\":\"cf-nel\",\"max_age\":604800}\n1 < Vary: Accept-Encoding\n1 < Server: cloudflare\n1 < CF-RAY: 67df6a9739db1d3d-BLR\n1 < alt-svc: h3-27=\":443\"; ma=86400, h3-28=\":443\"; ma=86400, h3-29=\":443\"; ma=86400, h3=\":443\"; ma=86400\n{\"data\":{\"id\":2,\"email\":\"janet.weaver@reqres.in\",\"first_name\":\"Janet\",\"last_name\":\"Weaver\",\"avatar\":\"https:\/\/reqres.in\/img\/faces\/2-image.jpg\"},\"support\":{\"url\":\"https:\/\/reqres.in\/#support-heading\",\"text\":\"To keep ReqRes free, contributions towards server costs are appreciated!\"}}\n"},{"result":{"nanos":4278100,"millis":4.2781,"status":"passed"},"step":{"line":9,"prefix":"Then","index":2,"text":"match response == '#object'"}},{"result":{"nanos":1149900,"millis":1.1499,"status":"passed"},"step":{"endLine":25,"line":10,"prefix":"*","docString":"{\n\"data\": {\n    \"id\": '#number',\n    \"email\": \"#string\",\n    \"first_name\": \"#string\",\n    \"last_name\": \"#string\",\n    \"avatar\": \"#string\"\n},\n\"support\": {\n    \"url\": \"#string\",\n    \"text\": \"#string\"\n}\n    }","index":3,"text":"def jsonSchemaExpected ="}},{"result":{"nanos":3444400,"millis":3.4444,"status":"passed"},"step":{"line":26,"prefix":"*","index":4,"text":"match response == jsonSchemaExpected"}}],"executorName":"pool-1-thread-1","line":6,"name":"Get a Single User and Verify its JSON Fields","description":"","durationMillis":115.5266,"startTime":1628831208386,"failed":false,"refId":"[1:6]","endTime":1628831208502,"exampleIndex":-1}],"callDepth":1,"name":"JSON Schema Validation","description":"","resultDate":"2021-08-13 10:36:49 AM","durationMillis":115.5266,"passedCount":1}]}],"line":8,"description":"","durationMillis":8112.7863,"failed":false,"tags":["debug"],"executorName":"pool-1-thread-1","name":"Get details of Users","startTime":1628831200218,"refId":"[1:8]","endTime":1628831208504,"exampleIndex":-1},{"sectionIndex":1,"stepResults":[{"result":{"nanos":5652600,"millis":5.6526,"status":"passed"},"step":{"background":true,"line":5,"prefix":"*","index":0,"text":"url 'https:\/\/reqres.in'"},"stepLog":"10:36:40.304 karate.env system property was: null \n"},{"result":{"nanos":364642400,"millis":364.6424,"status":"passed"},"step":{"background":true,"line":6,"prefix":"*","index":1,"text":"def eval1 = call read('eval.feature')"},"callResults":[{"failedCount":0,"prefixedPath":"classpath:examples\/users\/eval.feature","packageQualifiedName":"examples.users.eval","loopIndex":-1,"relativePath":"examples\/users\/eval.feature","scenarioResults":[{"sectionIndex":0,"stepResults":[{"result":{"nanos":269780200,"millis":269.7802,"status":"passed"},"step":{"endLine":14,"line":5,"prefix":"*","docString":"var f= function(v){ return v * v}\nvar nums= [0,1,2,3,4]\nvar sqares = []\nfor(var n in nums) {\n    sqares.push(f(n))\n}\nkarate.set('temp',sqares)","index":0,"text":"eval"}},{"result":{"nanos":40526100,"millis":40.5261,"status":"passed"},"step":{"line":15,"prefix":"*","index":1,"text":"match temp == [0,1,4,9,16]"}}],"executorName":"pool-1-thread-2","line":4,"name":"Eval Demo","description":"","durationMillis":310.3063,"startTime":1628831200440,"failed":false,"refId":"[1:4]","endTime":1628831200751,"exampleIndex":-1}],"callDepth":1,"name":"Eval funciton","description":"","resultDate":"2021-08-13 10:36:49 AM","durationMillis":310.3063,"passedCount":1}]},{"result":{"nanos":703200,"millis":0.7032,"status":"passed"},"step":{"line":16,"prefix":"Given","index":0,"text":"path \"\/api\/users\/2\""}},{"result":{"nanos":205400,"millis":0.2054,"status":"passed"},"step":{"endLine":23,"line":17,"prefix":"And","docString":"{\n  \"name\": \"manoj\",\n  \"job\": \"zion resident\"\n}","index":1,"text":"request"}},{"result":{"nanos":8211522000,"millis":8211.522,"status":"passed"},"step":{"line":24,"prefix":"When","index":2,"text":"method PATCH"},"stepLog":"10:36:45.380 request:\n1 > PATCH https:\/\/reqres.in\/api\/users\/2\n1 > Content-Type: application\/json; charset=UTF-8\n1 > Content-Length: 38\n1 > Host: reqres.in\n1 > Connection: Keep-Alive\n1 > User-Agent: Apache-HttpClient\/4.5.13 (Java\/11.0.12)\n1 > Accept-Encoding: gzip,deflate\n{\"name\":\"manoj\",\"job\":\"zion resident\"}\n\n10:36:48.969 response time in milliseconds: 3587\n1 < 200\n1 < Date: Fri, 13 Aug 2021 05:06:50 GMT\n1 < Content-Type: application\/json; charset=utf-8\n1 < Transfer-Encoding: chunked\n1 < Connection: keep-alive\n1 < x-powered-by: Express\n1 < access-control-allow-origin: *\n1 < etag: W\/\"4d-Em6yzgwgTnpmeKcv1cjeFnAc9pg\"\n1 < via: 1.1 vegur\n1 < CF-Cache-Status: DYNAMIC\n1 < Expect-CT: max-age=604800, report-uri=\"https:\/\/report-uri.cloudflare.com\/cdn-cgi\/beacon\/expect-ct\"\n1 < Report-To: {\"endpoints\":[{\"url\":\"https:\\\/\\\/a.nel.cloudflare.com\\\/report\\\/v3?s=Vkx8B3jHlMQl%2FZDDqM8CzvNrbKV2KQTIbdbQV%2BltPBMgb%2Byp7UGaZuhBOWPJIPM%2B2uHwhehcJVm9ZsDg1U5t%2FFWuhk38ZJueri73iIrp0fhNvDvWxU%2Fjth8m7ZY%3D\"}],\"group\":\"cf-nel\",\"max_age\":604800}\n1 < NEL: {\"success_fraction\":0,\"report_to\":\"cf-nel\",\"max_age\":604800}\n1 < Server: cloudflare\n1 < CF-RAY: 67df6a96db401dad-BLR\n1 < alt-svc: h3-27=\":443\"; ma=86400, h3-28=\":443\"; ma=86400, h3-29=\":443\"; ma=86400, h3=\":443\"; ma=86400\n{\"name\":\"manoj\",\"job\":\"zion resident\",\"updatedAt\":\"2021-08-13T05:06:50.508Z\"}\n"},{"result":{"nanos":18900,"millis":0.0189,"status":"passed"},"step":{"line":25,"prefix":"Then","index":3,"text":"status 200"}},{"result":{"nanos":2965500,"millis":2.9655,"status":"passed"},"step":{"line":26,"prefix":"Then","index":4,"text":"match response.job == \"zion resident\""}},{"result":{"nanos":7391100,"millis":7.3911,"status":"passed"},"step":{"line":27,"prefix":"*","index":5,"text":"def callonce2 = callonce read('JsonValidation.feature')"}}],"line":15,"description":"","durationMillis":8593.1011,"failed":false,"tags":["debug"],"executorName":"pool-1-thread-2","name":"Update users Job","startTime":1628831200222,"refId":"[2:15]","endTime":1628831208981,"exampleIndex":-1},{"sectionIndex":2,"stepResults":[{"result":{"nanos":11417400,"millis":11.4174,"status":"passed"},"step":{"background":true,"line":5,"prefix":"*","index":0,"text":"url 'https:\/\/reqres.in'"},"stepLog":"10:36:40.305 karate.env system property was: null \n"},{"result":{"nanos":360501600,"millis":360.5016,"status":"passed"},"step":{"background":true,"line":6,"prefix":"*","index":1,"text":"def eval1 = call read('eval.feature')"},"callResults":[{"failedCount":0,"prefixedPath":"classpath:examples\/users\/eval.feature","packageQualifiedName":"examples.users.eval","loopIndex":-1,"relativePath":"examples\/users\/eval.feature","scenarioResults":[{"sectionIndex":0,"stepResults":[{"result":{"nanos":287577700,"millis":287.5777,"status":"passed"},"step":{"endLine":14,"line":5,"prefix":"*","docString":"var f= function(v){ return v * v}\nvar nums= [0,1,2,3,4]\nvar sqares = []\nfor(var n in nums) {\n    sqares.push(f(n))\n}\nkarate.set('temp',sqares)","index":0,"text":"eval"}},{"result":{"nanos":54176900,"millis":54.1769,"status":"passed"},"step":{"line":15,"prefix":"*","index":1,"text":"match temp == [0,1,4,9,16]"}}],"executorName":"pool-1-thread-3","line":4,"name":"Eval Demo","description":"","durationMillis":341.7546,"startTime":1628831200414,"failed":false,"refId":"[1:4]","endTime":1628831200756,"exampleIndex":-1}],"callDepth":1,"name":"Eval funciton","description":"","resultDate":"2021-08-13 10:36:49 AM","durationMillis":341.7546,"passedCount":1}]},{"result":{"nanos":6226700,"millis":6.2267,"status":"passed"},"step":{"line":31,"prefix":"*","index":0,"text":"print 'calling 1st one'"},"stepLog":"10:36:40.763 [print] calling 1st one \n"}],"line":30,"description":"","durationMillis":378.1457,"failed":false,"tags":["debug","tagn1"],"executorName":"pool-1-thread-3","name":"1st one","startTime":1628831200228,"refId":"[3:30]","endTime":1628831200764,"exampleIndex":-1},{"sectionIndex":3,"stepResults":[{"result":{"nanos":8815200,"millis":8.8152,"status":"passed"},"step":{"background":true,"line":5,"prefix":"*","index":0,"text":"url 'https:\/\/reqres.in'"},"stepLog":"10:36:40.305 karate.env system property was: null \n"},{"result":{"nanos":356956900,"millis":356.9569,"status":"passed"},"step":{"background":true,"line":6,"prefix":"*","index":1,"text":"def eval1 = call read('eval.feature')"},"callResults":[{"failedCount":0,"prefixedPath":"classpath:examples\/users\/eval.feature","packageQualifiedName":"examples.users.eval","loopIndex":-1,"relativePath":"examples\/users\/eval.feature","scenarioResults":[{"sectionIndex":0,"stepResults":[{"result":{"nanos":262787500,"millis":262.7875,"status":"passed"},"step":{"endLine":14,"line":5,"prefix":"*","docString":"var f= function(v){ return v * v}\nvar nums= [0,1,2,3,4]\nvar sqares = []\nfor(var n in nums) {\n    sqares.push(f(n))\n}\nkarate.set('temp',sqares)","index":0,"text":"eval"}},{"result":{"nanos":49468600,"millis":49.4686,"status":"passed"},"step":{"line":15,"prefix":"*","index":1,"text":"match temp == [0,1,4,9,16]"}}],"executorName":"pool-1-thread-4","line":4,"name":"Eval Demo","description":"","durationMillis":312.2561,"startTime":1628831200439,"failed":false,"refId":"[1:4]","endTime":1628831200752,"exampleIndex":-1}],"callDepth":1,"name":"Eval funciton","description":"","resultDate":"2021-08-13 10:36:49 AM","durationMillis":312.2561,"passedCount":1}]},{"result":{"nanos":6352300,"millis":6.3523,"status":"passed"},"step":{"line":35,"prefix":"*","index":0,"text":"print 'this is 2nd scenario'"},"stepLog":"10:36:40.762 [print] this is 2nd scenario \n"},{"result":{"nanos":74762300,"millis":74.7623,"status":"passed"},"step":{"line":36,"prefix":"*","index":1,"text":"def result = call read('getCall.feature@tagn1')"},"callResults":[{"failedCount":0,"prefixedPath":"classpath:examples\/users\/getCall.feature","packageQualifiedName":"examples.users.getCall","loopIndex":-1,"relativePath":"examples\/users\/getCall.feature","scenarioResults":[{"sectionIndex":2,"stepResults":[{"result":{"nanos":284100,"millis":0.2841,"status":"passed"},"step":{"background":true,"line":5,"prefix":"*","index":0,"text":"url 'https:\/\/reqres.in'"}},{"result":{"nanos":51830200,"millis":51.8302,"status":"passed"},"step":{"background":true,"line":6,"prefix":"*","index":1,"text":"def eval1 = call read('eval.feature')"},"callResults":[{"failedCount":0,"prefixedPath":"classpath:examples\/users\/eval.feature","packageQualifiedName":"examples.users.eval","loopIndex":-1,"relativePath":"examples\/users\/eval.feature","scenarioResults":[{"sectionIndex":0,"stepResults":[{"result":{"nanos":16077700,"millis":16.0777,"status":"passed"},"step":{"endLine":14,"line":5,"prefix":"*","docString":"var f= function(v){ return v * v}\nvar nums= [0,1,2,3,4]\nvar sqares = []\nfor(var n in nums) {\n    sqares.push(f(n))\n}\nkarate.set('temp',sqares)","index":0,"text":"eval"}},{"result":{"nanos":1079800,"millis":1.0798,"status":"passed"},"step":{"line":15,"prefix":"*","index":1,"text":"match temp == [0,1,4,9,16]"}}],"executorName":"pool-1-thread-4","line":4,"name":"Eval Demo","description":"","durationMillis":17.1575,"startTime":1628831200814,"failed":false,"refId":"[1:4]","endTime":1628831200831,"exampleIndex":-1}],"callDepth":2,"name":"Eval funciton","description":"","resultDate":"2021-08-13 10:36:49 AM","durationMillis":17.1575,"passedCount":1}]},{"result":{"nanos":5226300,"millis":5.2263,"status":"passed"},"step":{"line":31,"prefix":"*","index":0,"text":"print 'calling 1st one'"},"stepLog":"10:36:40.837 [print] calling 1st one \n"}],"line":30,"description":"","durationMillis":57.3406,"failed":false,"tags":["debug","tagn1"],"executorName":"pool-1-thread-4","name":"1st one","startTime":1628831200779,"refId":"[3:30]","endTime":1628831200837,"exampleIndex":-1}],"callDepth":1,"name":"Get the deatils of students","description":"","resultDate":"2021-08-13 10:36:49 AM","durationMillis":57.3406,"passedCount":1}]}],"line":34,"description":"","durationMillis":446.8867,"failed":false,"tags":["debug","tagn2"],"executorName":"pool-1-thread-4","name":"2nd one","startTime":1628831200221,"refId":"[4:34]","endTime":1628831200837,"exampleIndex":-1}],"callDepth":0,"name":"Get the deatils of students","description":"","resultDate":"2021-08-13 10:36:49 AM","durationMillis":17530.9198,"passedCount":4}