{"failedCount":0,"prefixedPath":"classpath:examples\/users\/getCall.feature","packageQualifiedName":"examples.users.getCall","loopIndex":-1,"relativePath":"examples\/users\/getCall.feature","scenarioResults":[{"sectionIndex":0,"stepResults":[{"result":{"nanos":896900,"millis":0.8969,"status":"passed"},"step":{"background":true,"line":5,"prefix":"*","index":0,"text":"url 'https:\/\/reqres.in'"},"stepLog":"09:25:25.722 karate.env system property was: null \n"},{"result":{"nanos":296273900,"millis":296.2739,"status":"passed"},"step":{"background":true,"line":6,"prefix":"*","index":1,"text":"def eval1 = call read('eval.feature')"},"callResults":[{"failedCount":0,"prefixedPath":"classpath:examples\/users\/eval.feature","packageQualifiedName":"examples.users.eval","loopIndex":-1,"relativePath":"examples\/users\/eval.feature","scenarioResults":[{"sectionIndex":0,"stepResults":[{"result":{"nanos":244063800,"millis":244.0638,"status":"passed"},"step":{"endLine":14,"line":5,"prefix":"*","docString":"var f= function(v){ return v * v}\nvar nums= [0,1,2,3,4]\nvar sqares = []\nfor(var n in nums) {\n    sqares.push(f(n))\n}\nkarate.set('temp',sqares)","index":0,"text":"eval"}},{"result":{"nanos":29461000,"millis":29.461,"status":"passed"},"step":{"line":15,"prefix":"*","index":1,"text":"match temp == [0,1,4,9,16]"}}],"executorName":"pool-1-thread-1","line":4,"name":"Eval Demo","description":"","durationMillis":273.5248,"startTime":1628826925841,"failed":false,"refId":"[1:4]","endTime":1628826926115,"exampleIndex":-1}],"callDepth":1,"name":"Eval funciton","description":"","resultDate":"2021-08-13 09:25:30 AM","durationMillis":273.5248,"passedCount":1}]},{"result":{"nanos":779100,"millis":0.7791,"status":"passed"},"step":{"line":9,"prefix":"Given","index":0,"text":"path \"\/api\/users?page=2\""}},{"result":{"nanos":3860117100,"millis":3860.1171,"status":"passed"},"step":{"line":10,"prefix":"When","index":1,"text":"method GET"},"stepLog":"09:25:29.143 request:\n1 > GET https:\/\/reqres.in\/api\/users%3Fpage=2\n1 > Host: reqres.in\n1 > Connection: Keep-Alive\n1 > User-Agent: Apache-HttpClient\/4.5.13 (Java\/11.0.12)\n1 > Accept-Encoding: gzip,deflate\n\n\n09:25:29.972 response time in milliseconds: 827\n1 < 200\n1 < Date: Fri, 13 Aug 2021 03:55:31 GMT\n1 < Content-Type: application\/json; charset=utf-8\n1 < Transfer-Encoding: chunked\n1 < Connection: keep-alive\n1 < x-powered-by: Express\n1 < access-control-allow-origin: *\n1 < etag: W\/\"2c1-N6Rqerxquq2kgQhL51EiSg4x0R8\"\n1 < via: 1.1 vegur\n1 < Cache-Control: max-age=14400\n1 < CF-Cache-Status: HIT\n1 < Age: 1718\n1 < Expect-CT: max-age=604800, report-uri=\"https:\/\/report-uri.cloudflare.com\/cdn-cgi\/beacon\/expect-ct\"\n1 < Report-To: {\"endpoints\":[{\"url\":\"https:\\\/\\\/a.nel.cloudflare.com\\\/report\\\/v3?s=bafBt%2FCoYGk3%2F0QQtxeL6pOT8G2VPD%2FQGFfvhQ43Al51ofNOOMGlhjSW2qr1DhFYGeLrQLDHn%2Fvxp8mdQpZgrMTeVubVJ%2FD32KseXyf3J3AVh5E15c7IZreywy8%3D\"}],\"group\":\"cf-nel\",\"max_age\":604800}\n1 < NEL: {\"success_fraction\":0,\"report_to\":\"cf-nel\",\"max_age\":604800}\n1 < Vary: Accept-Encoding\n1 < Server: cloudflare\n1 < CF-RAY: 67df02219f231da9-BLR\n1 < alt-svc: h3-27=\":443\"; ma=86400, h3-28=\":443\"; ma=86400, h3-29=\":443\"; ma=86400, h3=\":443\"; ma=86400\n{\"page\":1,\"per_page\":6,\"total\":12,\"total_pages\":2,\"data\":[{\"id\":1,\"name\":\"cerulean\",\"year\":2000,\"color\":\"#98B2D1\",\"pantone_value\":\"15-4020\"},{\"id\":2,\"name\":\"fuchsia rose\",\"year\":2001,\"color\":\"#C74375\",\"pantone_value\":\"17-2031\"},{\"id\":3,\"name\":\"true red\",\"year\":2002,\"color\":\"#BF1932\",\"pantone_value\":\"19-1664\"},{\"id\":4,\"name\":\"aqua sky\",\"year\":2003,\"color\":\"#7BC4C4\",\"pantone_value\":\"14-4811\"},{\"id\":5,\"name\":\"tigerlily\",\"year\":2004,\"color\":\"#E2583E\",\"pantone_value\":\"17-1456\"},{\"id\":6,\"name\":\"blue turquoise\",\"year\":2005,\"color\":\"#53B0AE\",\"pantone_value\":\"15-5217\"}],\"support\":{\"url\":\"https:\/\/reqres.in\/#support-heading\",\"text\":\"To keep ReqRes free, contributions towards server costs are appreciated!\"}}\n"},{"result":{"nanos":36600,"millis":0.0366,"status":"passed"},"step":{"line":11,"prefix":"Then","index":2,"text":"status 200"}},{"result":{"nanos":2006300,"millis":2.0063,"status":"passed"},"step":{"line":12,"prefix":"*","index":3,"text":"def userId = response.page"}},{"result":{"nanos":112027500,"millis":112.0275,"status":"passed"},"step":{"line":13,"prefix":"*","index":4,"text":"def callOnce = callonce read('JsonValidation.feature')"},"stepLog":"09:25:30.100 << lock released, cached callonce: read('JsonValidation.feature')\n","callResults":[{"failedCount":0,"prefixedPath":"classpath:examples\/users\/JsonValidation.feature","packageQualifiedName":"examples.users.JsonValidation","loopIndex":-1,"relativePath":"examples\/users\/JsonValidation.feature","scenarioResults":[{"sectionIndex":0,"stepResults":[{"result":{"nanos":972000,"millis":0.972,"status":"passed"},"step":{"background":true,"line":5,"prefix":"*","index":0,"text":"url 'https:\/\/reqres.in\/api\/users\/'"},"stepLog":"09:25:30.000 >> lock acquired, begin callonce: read('JsonValidation.feature')\n"},{"result":{"nanos":4014300,"millis":4.0143,"status":"passed"},"step":{"line":7,"prefix":"Given","index":0,"text":"url 'https:\/\/reqres.in\/api\/users\/2'"}},{"result":{"nanos":63680400,"millis":63.6804,"status":"passed"},"step":{"line":8,"prefix":"When","index":1,"text":"method GET"},"stepLog":"09:25:30.035 request:\n1 > GET https:\/\/reqres.in\/api\/users\/2\n1 > Host: reqres.in\n1 > Connection: Keep-Alive\n1 > User-Agent: Apache-HttpClient\/4.5.13 (Java\/11.0.12)\n1 > Accept-Encoding: gzip,deflate\n\n\n09:25:30.094 response time in milliseconds: 57\n1 < 200\n1 < Date: Fri, 13 Aug 2021 03:55:31 GMT\n1 < Content-Type: application\/json; charset=utf-8\n1 < Transfer-Encoding: chunked\n1 < Connection: keep-alive\n1 < x-powered-by: Express\n1 < access-control-allow-origin: *\n1 < etag: W\/\"118-pbdwwFo9SKNhD3Lx5iHJyngpq00\"\n1 < via: 1.1 vegur\n1 < Cache-Control: max-age=14400\n1 < CF-Cache-Status: HIT\n1 < Age: 5540\n1 < Expect-CT: max-age=604800, report-uri=\"https:\/\/report-uri.cloudflare.com\/cdn-cgi\/beacon\/expect-ct\"\n1 < Report-To: {\"endpoints\":[{\"url\":\"https:\\\/\\\/a.nel.cloudflare.com\\\/report\\\/v3?s=QB3eXAuO6%2Be9wIJ1Di%2FaoU9424jlf9uQt4%2FO3nf7FKFu2kIYxS%2BBFag25dOkRbokq8h42yb0CawRkWP35xwHE%2FG7GSBx6RSCYw86djTyIHeQjhIDOD55q6L17tQ%3D\"}],\"group\":\"cf-nel\",\"max_age\":604800}\n1 < NEL: {\"success_fraction\":0,\"report_to\":\"cf-nel\",\"max_age\":604800}\n1 < Vary: Accept-Encoding\n1 < Server: cloudflare\n1 < CF-RAY: 67df02231f8d1d14-BLR\n1 < alt-svc: h3-27=\":443\"; ma=86400, h3-28=\":443\"; ma=86400, h3-29=\":443\"; ma=86400, h3=\":443\"; ma=86400\n{\"data\":{\"id\":2,\"email\":\"janet.weaver@reqres.in\",\"first_name\":\"Janet\",\"last_name\":\"Weaver\",\"avatar\":\"https:\/\/reqres.in\/img\/faces\/2-image.jpg\"},\"support\":{\"url\":\"https:\/\/reqres.in\/#support-heading\",\"text\":\"To keep ReqRes free, contributions towards server costs are appreciated!\"}}\n"},{"result":{"nanos":1152000,"millis":1.152,"status":"passed"},"step":{"line":9,"prefix":"Then","index":2,"text":"match response == '#object'"}},{"result":{"nanos":461400,"millis":0.4614,"status":"passed"},"step":{"endLine":25,"line":10,"prefix":"*","docString":"{\n\"data\": {\n    \"id\": '#number',\n    \"email\": \"#string\",\n    \"first_name\": \"#string\",\n    \"last_name\": \"#string\",\n    \"avatar\": \"#string\"\n},\n\"support\": {\n    \"url\": \"#string\",\n    \"text\": \"#string\"\n}\n    }","index":3,"text":"def jsonSchemaExpected ="}},{"result":{"nanos":1525500,"millis":1.5255,"status":"passed"},"step":{"line":26,"prefix":"*","index":4,"text":"match response == jsonSchemaExpected"}}],"executorName":"pool-1-thread-1","line":6,"name":"Get a Single User and Verify its JSON Fields","description":"","durationMillis":71.8056,"startTime":1628826930026,"failed":false,"refId":"[1:6]","endTime":1628826930099,"exampleIndex":-1}],"callDepth":1,"name":"JSON Schema Validation","description":"","resultDate":"2021-08-13 09:25:30 AM","durationMillis":71.8056,"passedCount":1}]}],"line":8,"description":"","durationMillis":4272.1374,"failed":false,"tags":["debug"],"executorName":"pool-1-thread-1","name":"Get details of Users","startTime":1628826925623,"refId":"[1:8]","endTime":1628826930100,"exampleIndex":-1},{"sectionIndex":1,"stepResults":[{"result":{"nanos":3248000,"millis":3.248,"status":"passed"},"step":{"background":true,"line":5,"prefix":"*","index":0,"text":"url 'https:\/\/reqres.in'"},"stepLog":"09:25:25.722 karate.env system property was: null \n"},{"result":{"nanos":300122300,"millis":300.1223,"status":"passed"},"step":{"background":true,"line":6,"prefix":"*","index":1,"text":"def eval1 = call read('eval.feature')"},"callResults":[{"failedCount":0,"prefixedPath":"classpath:examples\/users\/eval.feature","packageQualifiedName":"examples.users.eval","loopIndex":-1,"relativePath":"examples\/users\/eval.feature","scenarioResults":[{"sectionIndex":0,"stepResults":[{"result":{"nanos":264660600,"millis":264.6606,"status":"passed"},"step":{"endLine":14,"line":5,"prefix":"*","docString":"var f= function(v){ return v * v}\nvar nums= [0,1,2,3,4]\nvar sqares = []\nfor(var n in nums) {\n    sqares.push(f(n))\n}\nkarate.set('temp',sqares)","index":0,"text":"eval"}},{"result":{"nanos":2469800,"millis":2.4698,"status":"passed"},"step":{"line":15,"prefix":"*","index":1,"text":"match temp == [0,1,4,9,16]"}}],"executorName":"pool-1-thread-2","line":4,"name":"Eval Demo","description":"","durationMillis":267.1304,"startTime":1628826925859,"failed":false,"refId":"[1:4]","endTime":1628826926127,"exampleIndex":-1}],"callDepth":1,"name":"Eval funciton","description":"","resultDate":"2021-08-13 09:25:30 AM","durationMillis":267.1304,"passedCount":1}]},{"result":{"nanos":612400,"millis":0.6124,"status":"passed"},"step":{"line":16,"prefix":"Given","index":0,"text":"path \"\/api\/users\/2\""}},{"result":{"nanos":201000,"millis":0.201,"status":"passed"},"step":{"endLine":23,"line":17,"prefix":"And","docString":"{\n  \"name\": \"manoj\",\n  \"job\": \"zion resident\"\n}","index":1,"text":"request"}},{"result":{"nanos":4118570700,"millis":4118.5707,"status":"passed"},"step":{"line":24,"prefix":"When","index":2,"text":"method PATCH"},"stepLog":"09:25:29.145 request:\n1 > PATCH https:\/\/reqres.in\/api\/users\/2\n1 > Content-Type: application\/json; charset=UTF-8\n1 > Content-Length: 38\n1 > Host: reqres.in\n1 > Connection: Keep-Alive\n1 > User-Agent: Apache-HttpClient\/4.5.13 (Java\/11.0.12)\n1 > Accept-Encoding: gzip,deflate\n{\"name\":\"manoj\",\"job\":\"zion resident\"}\n\n09:25:30.246 response time in milliseconds: 1100\n1 < 200\n1 < Date: Fri, 13 Aug 2021 03:55:31 GMT\n1 < Content-Type: application\/json; charset=utf-8\n1 < Transfer-Encoding: chunked\n1 < Connection: keep-alive\n1 < x-powered-by: Express\n1 < access-control-allow-origin: *\n1 < etag: W\/\"4d-wxF939Qk8PvGv0qhYRxk7c9\/Wyk\"\n1 < via: 1.1 vegur\n1 < CF-Cache-Status: DYNAMIC\n1 < Expect-CT: max-age=604800, report-uri=\"https:\/\/report-uri.cloudflare.com\/cdn-cgi\/beacon\/expect-ct\"\n1 < Report-To: {\"endpoints\":[{\"url\":\"https:\\\/\\\/a.nel.cloudflare.com\\\/report\\\/v3?s=4x19Dp8%2BiUr4JaFA4%2B3L7icxDhylv1diOKQTqkPq1P5n0RSuyi2AGplfFLHOb9%2BDiJf0z1DjuEQMXhZ2CwdN0c8wrvIqXl9PCk%2FRS9qAy5eSKBZwuqPuCOgpnLg%3D\"}],\"group\":\"cf-nel\",\"max_age\":604800}\n1 < NEL: {\"success_fraction\":0,\"report_to\":\"cf-nel\",\"max_age\":604800}\n1 < Server: cloudflare\n1 < CF-RAY: 67df0221bf081d3d-BLR\n1 < alt-svc: h3-27=\":443\"; ma=86400, h3-28=\":443\"; ma=86400, h3-29=\":443\"; ma=86400, h3=\":443\"; ma=86400\n{\"name\":\"manoj\",\"job\":\"zion resident\",\"updatedAt\":\"2021-08-13T03:55:31.780Z\"}\n"},{"result":{"nanos":13300,"millis":0.0133,"status":"passed"},"step":{"line":25,"prefix":"Then","index":3,"text":"status 200"}},{"result":{"nanos":2608400,"millis":2.6084,"status":"passed"},"step":{"line":26,"prefix":"Then","index":4,"text":"match response.job == \"zion resident\""}},{"result":{"nanos":61711800,"millis":61.7118,"status":"passed"},"step":{"line":27,"prefix":"*","index":5,"text":"def callonce2 = callonce read('JsonValidation.feature')"}}],"line":15,"description":"","durationMillis":4487.0879,"failed":false,"tags":["debug"],"executorName":"pool-1-thread-2","name":"Update users Job","startTime":1628826925627,"refId":"[2:15]","endTime":1628826930311,"exampleIndex":-1},{"sectionIndex":2,"stepResults":[{"result":{"nanos":5135400,"millis":5.1354,"status":"passed"},"step":{"background":true,"line":5,"prefix":"*","index":0,"text":"url 'https:\/\/reqres.in'"},"stepLog":"09:25:25.723 karate.env system property was: null \n"},{"result":{"nanos":303983100,"millis":303.9831,"status":"passed"},"step":{"background":true,"line":6,"prefix":"*","index":1,"text":"def eval1 = call read('eval.feature')"},"callResults":[{"failedCount":0,"prefixedPath":"classpath:examples\/users\/eval.feature","packageQualifiedName":"examples.users.eval","loopIndex":-1,"relativePath":"examples\/users\/eval.feature","scenarioResults":[{"sectionIndex":0,"stepResults":[{"result":{"nanos":228970000,"millis":228.97,"status":"passed"},"step":{"endLine":14,"line":5,"prefix":"*","docString":"var f= function(v){ return v * v}\nvar nums= [0,1,2,3,4]\nvar sqares = []\nfor(var n in nums) {\n    sqares.push(f(n))\n}\nkarate.set('temp',sqares)","index":0,"text":"eval"}},{"result":{"nanos":5523500,"millis":5.5235,"status":"passed"},"step":{"line":15,"prefix":"*","index":1,"text":"match temp == [0,1,4,9,16]"}}],"executorName":"pool-1-thread-3","line":4,"name":"Eval Demo","description":"","durationMillis":234.4935,"startTime":1628826925880,"failed":false,"refId":"[1:4]","endTime":1628826926115,"exampleIndex":-1}],"callDepth":1,"name":"Eval funciton","description":"","resultDate":"2021-08-13 09:25:30 AM","durationMillis":234.4935,"passedCount":1}]},{"result":{"nanos":1629000,"millis":1.629,"status":"passed"},"step":{"line":31,"prefix":"*","index":0,"text":"print 'calling 1st one'"},"stepLog":"09:25:26.121 [print] calling 1st one \n"}],"line":30,"description":"","durationMillis":310.7475,"failed":false,"tags":["debug","tagn1"],"executorName":"pool-1-thread-3","name":"1st one","startTime":1628826925621,"refId":"[3:30]","endTime":1628826926122,"exampleIndex":-1},{"sectionIndex":3,"stepResults":[{"result":{"nanos":2052700,"millis":2.0527,"status":"passed"},"step":{"background":true,"line":5,"prefix":"*","index":0,"text":"url 'https:\/\/reqres.in'"},"stepLog":"09:25:25.722 karate.env system property was: null \n"},{"result":{"nanos":313904500,"millis":313.9045,"status":"passed"},"step":{"background":true,"line":6,"prefix":"*","index":1,"text":"def eval1 = call read('eval.feature')"},"callResults":[{"failedCount":0,"prefixedPath":"classpath:examples\/users\/eval.feature","packageQualifiedName":"examples.users.eval","loopIndex":-1,"relativePath":"examples\/users\/eval.feature","scenarioResults":[{"sectionIndex":0,"stepResults":[{"result":{"nanos":225210700,"millis":225.2107,"status":"passed"},"step":{"endLine":14,"line":5,"prefix":"*","docString":"var f= function(v){ return v * v}\nvar nums= [0,1,2,3,4]\nvar sqares = []\nfor(var n in nums) {\n    sqares.push(f(n))\n}\nkarate.set('temp',sqares)","index":0,"text":"eval"}},{"result":{"nanos":24734300,"millis":24.7343,"status":"passed"},"step":{"line":15,"prefix":"*","index":1,"text":"match temp == [0,1,4,9,16]"}}],"executorName":"pool-1-thread-4","line":4,"name":"Eval Demo","description":"","durationMillis":249.945,"startTime":1628826925865,"failed":false,"refId":"[1:4]","endTime":1628826926115,"exampleIndex":-1}],"callDepth":1,"name":"Eval funciton","description":"","resultDate":"2021-08-13 09:25:30 AM","durationMillis":249.945,"passedCount":1}]},{"result":{"nanos":1295500,"millis":1.2955,"status":"passed"},"step":{"line":35,"prefix":"*","index":0,"text":"print 'this is 2nd scenario'"},"stepLog":"09:25:26.130 [print] this is 2nd scenario \n"},{"result":{"nanos":52014400,"millis":52.0144,"status":"passed"},"step":{"line":36,"prefix":"*","index":1,"text":"def result = call read('getCall.feature@tagn1')"},"callResults":[{"failedCount":0,"prefixedPath":"classpath:examples\/users\/getCall.feature","packageQualifiedName":"examples.users.getCall","loopIndex":-1,"relativePath":"examples\/users\/getCall.feature","scenarioResults":[{"sectionIndex":2,"stepResults":[{"result":{"nanos":249000,"millis":0.249,"status":"passed"},"step":{"background":true,"line":5,"prefix":"*","index":0,"text":"url 'https:\/\/reqres.in'"}},{"result":{"nanos":24031900,"millis":24.0319,"status":"passed"},"step":{"background":true,"line":6,"prefix":"*","index":1,"text":"def eval1 = call read('eval.feature')"},"callResults":[{"failedCount":0,"prefixedPath":"classpath:examples\/users\/eval.feature","packageQualifiedName":"examples.users.eval","loopIndex":-1,"relativePath":"examples\/users\/eval.feature","scenarioResults":[{"sectionIndex":0,"stepResults":[{"result":{"nanos":16432300,"millis":16.4323,"status":"passed"},"step":{"endLine":14,"line":5,"prefix":"*","docString":"var f= function(v){ return v * v}\nvar nums= [0,1,2,3,4]\nvar sqares = []\nfor(var n in nums) {\n    sqares.push(f(n))\n}\nkarate.set('temp',sqares)","index":0,"text":"eval"}},{"result":{"nanos":698500,"millis":0.6985,"status":"passed"},"step":{"line":15,"prefix":"*","index":1,"text":"match temp == [0,1,4,9,16]"}}],"executorName":"pool-1-thread-4","line":4,"name":"Eval Demo","description":"","durationMillis":17.1308,"startTime":1628826926148,"failed":false,"refId":"[1:4]","endTime":1628826926165,"exampleIndex":-1}],"callDepth":2,"name":"Eval funciton","description":"","resultDate":"2021-08-13 09:25:30 AM","durationMillis":17.1308,"passedCount":1}]},{"result":{"nanos":14350800,"millis":14.3508,"status":"passed"},"step":{"line":31,"prefix":"*","index":0,"text":"print 'calling 1st one'"},"stepLog":"09:25:26.180 [print] calling 1st one \n"}],"line":30,"description":"","durationMillis":38.6317,"failed":false,"tags":["debug","tagn1"],"executorName":"pool-1-thread-4","name":"1st one","startTime":1628826926141,"refId":"[3:30]","endTime":1628826926180,"exampleIndex":-1}],"callDepth":1,"name":"Get the deatils of students","description":"","resultDate":"2021-08-13 09:25:30 AM","durationMillis":38.6317,"passedCount":1}]}],"line":34,"description":"","durationMillis":369.2671,"failed":false,"tags":["debug","tagn2"],"executorName":"pool-1-thread-4","name":"2nd one","startTime":1628826925625,"refId":"[4:34]","endTime":1628826926182,"exampleIndex":-1}],"callDepth":0,"name":"Get the deatils of students","description":"","resultDate":"2021-08-13 09:25:30 AM","durationMillis":9439.2399,"passedCount":4}