{"failedCount":0,"prefixedPath":"classpath:examples\/users\/getCall.feature","packageQualifiedName":"examples.users.getCall","loopIndex":-1,"relativePath":"examples\/users\/getCall.feature","scenarioResults":[{"sectionIndex":0,"stepResults":[{"result":{"nanos":1462000,"millis":1.462,"status":"passed"},"step":{"background":true,"line":5,"prefix":"*","index":0,"text":"url 'https:\/\/reqres.in'"},"stepLog":"09:02:31.486 karate.env system property was: null \n"},{"result":{"nanos":123092700,"millis":123.0927,"status":"passed"},"step":{"background":true,"line":6,"prefix":"*","index":1,"text":"def eval1 = call read('eval.feature')"},"callResults":[{"failedCount":0,"prefixedPath":"classpath:examples\/users\/eval.feature","packageQualifiedName":"examples.users.eval","loopIndex":-1,"relativePath":"examples\/users\/eval.feature","scenarioResults":[{"sectionIndex":0,"stepResults":[{"result":{"nanos":75751900,"millis":75.7519,"status":"passed"},"step":{"endLine":14,"line":5,"prefix":"*","docString":"var f= function(v){ return v * v}\nvar nums= [0,1,2,3,4]\nvar sqares = []\nfor(var n in nums) {\n    sqares.push(f(n))\n}\nkarate.set('temp',sqares)","index":0,"text":"eval"}},{"result":{"nanos":28634500,"millis":28.6345,"status":"passed"},"step":{"line":15,"prefix":"*","index":1,"text":"match temp == [0,1,4,9,16]"}}],"executorName":"pool-1-thread-1","line":4,"name":"Eval Demo","description":"","durationMillis":104.3864,"startTime":1628825551570,"failed":false,"refId":"[1:4]","endTime":1628825551675,"exampleIndex":-1}],"callDepth":1,"name":"Eval funciton","description":"","resultDate":"2021-08-13 09:02:32 AM","durationMillis":104.3864,"passedCount":1}]},{"result":{"nanos":822300,"millis":0.8223,"status":"passed"},"step":{"line":9,"prefix":"Given","index":0,"text":"path \"\/api\/users?page=2\""}},{"result":{"nanos":1119388000,"millis":1119.388,"status":"passed"},"step":{"line":10,"prefix":"When","index":1,"text":"method GET"},"stepLog":"09:02:32.489 request:\n1 > GET https:\/\/reqres.in\/api\/users%3Fpage=2\n1 > Host: reqres.in\n1 > Connection: Keep-Alive\n1 > User-Agent: Apache-HttpClient\/4.5.13 (Java\/11.0.12)\n1 > Accept-Encoding: gzip,deflate\n\n\n09:02:32.793 response time in milliseconds: 300\n1 < 200\n1 < Date: Fri, 13 Aug 2021 03:32:34 GMT\n1 < Content-Type: application\/json; charset=utf-8\n1 < Transfer-Encoding: chunked\n1 < Connection: keep-alive\n1 < x-powered-by: Express\n1 < access-control-allow-origin: *\n1 < etag: W\/\"2c1-N6Rqerxquq2kgQhL51EiSg4x0R8\"\n1 < via: 1.1 vegur\n1 < Cache-Control: max-age=14400\n1 < CF-Cache-Status: HIT\n1 < Age: 341\n1 < Expect-CT: max-age=604800, report-uri=\"https:\/\/report-uri.cloudflare.com\/cdn-cgi\/beacon\/expect-ct\"\n1 < Report-To: {\"endpoints\":[{\"url\":\"https:\\\/\\\/a.nel.cloudflare.com\\\/report\\\/v3?s=1xtFTHmzpU6RbnGer%2BsqVvnX603FKUrwi9O3oJWF%2FSh33d4TU2wmWA6hKu5kUq%2BC8pdN%2FMlQG%2BvUneypaic%2F1n9MlVa46nYkikS%2FgxyiaQozh8rsPTe9NhK4EK0%3D\"}],\"group\":\"cf-nel\",\"max_age\":604800}\n1 < NEL: {\"success_fraction\":0,\"report_to\":\"cf-nel\",\"max_age\":604800}\n1 < Vary: Accept-Encoding\n1 < Server: cloudflare\n1 < CF-RAY: 67dee082eefd1d8d-BLR\n1 < alt-svc: h3-27=\":443\"; ma=86400, h3-28=\":443\"; ma=86400, h3-29=\":443\"; ma=86400, h3=\":443\"; ma=86400\n{\"page\":1,\"per_page\":6,\"total\":12,\"total_pages\":2,\"data\":[{\"id\":1,\"name\":\"cerulean\",\"year\":2000,\"color\":\"#98B2D1\",\"pantone_value\":\"15-4020\"},{\"id\":2,\"name\":\"fuchsia rose\",\"year\":2001,\"color\":\"#C74375\",\"pantone_value\":\"17-2031\"},{\"id\":3,\"name\":\"true red\",\"year\":2002,\"color\":\"#BF1932\",\"pantone_value\":\"19-1664\"},{\"id\":4,\"name\":\"aqua sky\",\"year\":2003,\"color\":\"#7BC4C4\",\"pantone_value\":\"14-4811\"},{\"id\":5,\"name\":\"tigerlily\",\"year\":2004,\"color\":\"#E2583E\",\"pantone_value\":\"17-1456\"},{\"id\":6,\"name\":\"blue turquoise\",\"year\":2005,\"color\":\"#53B0AE\",\"pantone_value\":\"15-5217\"}],\"support\":{\"url\":\"https:\/\/reqres.in\/#support-heading\",\"text\":\"To keep ReqRes free, contributions towards server costs are appreciated!\"}}\n"},{"result":{"nanos":31600,"millis":0.0316,"status":"passed"},"step":{"line":11,"prefix":"Then","index":2,"text":"status 200"}},{"result":{"nanos":2409500,"millis":2.4095,"status":"passed"},"step":{"line":12,"prefix":"*","index":3,"text":"def userId = response.page"}},{"result":{"nanos":186316900,"millis":186.3169,"status":"passed"},"step":{"line":13,"prefix":"*","index":4,"text":"def callOnce = callonce read('JsonValidation.feature')"},"stepLog":"09:02:32.986 << lock released, cached callonce: read('JsonValidation.feature')\n","callResults":[{"failedCount":0,"prefixedPath":"classpath:examples\/users\/JsonValidation.feature","packageQualifiedName":"examples.users.JsonValidation","loopIndex":-1,"relativePath":"examples\/users\/JsonValidation.feature","scenarioResults":[{"sectionIndex":0,"stepResults":[{"result":{"nanos":1134600,"millis":1.1346,"status":"passed"},"step":{"background":true,"line":5,"prefix":"*","index":0,"text":"url 'https:\/\/reqres.in\/api\/users\/'"},"stepLog":"09:02:32.804 >> lock acquired, begin callonce: read('JsonValidation.feature')\n"},{"result":{"nanos":1556000,"millis":1.556,"status":"passed"},"step":{"line":7,"prefix":"Given","index":0,"text":"url 'https:\/\/reqres.in\/api\/users\/2'"}},{"result":{"nanos":128990400,"millis":128.9904,"status":"passed"},"step":{"line":8,"prefix":"When","index":1,"text":"method GET"},"stepLog":"09:02:32.850 request:\n1 > GET https:\/\/reqres.in\/api\/users\/2\n1 > Host: reqres.in\n1 > Connection: Keep-Alive\n1 > User-Agent: Apache-HttpClient\/4.5.13 (Java\/11.0.12)\n1 > Accept-Encoding: gzip,deflate\n\n\n09:02:32.971 response time in milliseconds: 119\n1 < 200\n1 < Date: Fri, 13 Aug 2021 03:32:34 GMT\n1 < Content-Type: application\/json; charset=utf-8\n1 < Transfer-Encoding: chunked\n1 < Connection: keep-alive\n1 < x-powered-by: Express\n1 < access-control-allow-origin: *\n1 < etag: W\/\"118-pbdwwFo9SKNhD3Lx5iHJyngpq00\"\n1 < via: 1.1 vegur\n1 < Cache-Control: max-age=14400\n1 < CF-Cache-Status: HIT\n1 < Age: 4163\n1 < Expect-CT: max-age=604800, report-uri=\"https:\/\/report-uri.cloudflare.com\/cdn-cgi\/beacon\/expect-ct\"\n1 < Report-To: {\"endpoints\":[{\"url\":\"https:\\\/\\\/a.nel.cloudflare.com\\\/report\\\/v3?s=kltWtc1snV1Dy7etZaBnhylsBqVJ1HsfK7Lz38HYheetldHF2zKOCCqSbRtcwOAJyWRAKJpVtBLSGEzwn31Xv6zmfwT7chqSbAvA%2BQYyBVZTKV4euoDbyKepLyI%3D\"}],\"group\":\"cf-nel\",\"max_age\":604800}\n1 < NEL: {\"success_fraction\":0,\"report_to\":\"cf-nel\",\"max_age\":604800}\n1 < Vary: Accept-Encoding\n1 < Server: cloudflare\n1 < CF-RAY: 67dee0841e7c1d18-BLR\n1 < alt-svc: h3-27=\":443\"; ma=86400, h3-28=\":443\"; ma=86400, h3-29=\":443\"; ma=86400, h3=\":443\"; ma=86400\n{\"data\":{\"id\":2,\"email\":\"janet.weaver@reqres.in\",\"first_name\":\"Janet\",\"last_name\":\"Weaver\",\"avatar\":\"https:\/\/reqres.in\/img\/faces\/2-image.jpg\"},\"support\":{\"url\":\"https:\/\/reqres.in\/#support-heading\",\"text\":\"To keep ReqRes free, contributions towards server costs are appreciated!\"}}\n"},{"result":{"nanos":2816200,"millis":2.8162,"status":"passed"},"step":{"line":9,"prefix":"Then","index":2,"text":"match response == '#object'"}},{"result":{"nanos":1807000,"millis":1.807,"status":"passed"},"step":{"endLine":25,"line":10,"prefix":"*","docString":"{\n\"data\": {\n    \"id\": '#number',\n    \"email\": \"#string\",\n    \"first_name\": \"#string\",\n    \"last_name\": \"#string\",\n    \"avatar\": \"#string\"\n},\n\"support\": {\n    \"url\": \"#string\",\n    \"text\": \"#string\"\n}\n    }","index":3,"text":"def jsonSchemaExpected ="}},{"result":{"nanos":2075200,"millis":2.0752,"status":"passed"},"step":{"line":26,"prefix":"*","index":4,"text":"match response == jsonSchemaExpected"}}],"executorName":"pool-1-thread-1","line":6,"name":"Get a Single User and Verify its JSON Fields","description":"","durationMillis":138.3794,"startTime":1628825552845,"failed":false,"refId":"[1:6]","endTime":1628825552985,"exampleIndex":-1}],"callDepth":1,"name":"JSON Schema Validation","description":"","resultDate":"2021-08-13 09:02:33 AM","durationMillis":138.3794,"passedCount":1}]}],"line":8,"description":"","durationMillis":1433.523,"failed":false,"tags":["debug"],"executorName":"pool-1-thread-1","name":"Get details of Users","startTime":1628825551441,"refId":"[1:8]","endTime":1628825552987,"exampleIndex":-1}],"callDepth":0,"name":"Get the deatils of students","description":"","resultDate":"2021-08-13 09:02:32 AM","durationMillis":1433.523,"passedCount":1}