{"failedCount":0,"prefixedPath":"classpath:examples\/users\/getCall.feature","packageQualifiedName":"examples.users.getCall","loopIndex":-1,"relativePath":"examples\/users\/getCall.feature","scenarioResults":[{"sectionIndex":0,"stepResults":[{"result":{"nanos":3695200,"millis":3.6952,"status":"passed"},"step":{"background":true,"line":5,"prefix":"*","index":0,"text":"url 'https:\/\/reqres.in'"},"stepLog":"09:08:51.946 karate.env system property was: null \n"},{"result":{"nanos":170950800,"millis":170.9508,"status":"passed"},"step":{"background":true,"line":6,"prefix":"*","index":1,"text":"def eval1 = call read('eval.feature')"},"callResults":[{"failedCount":0,"prefixedPath":"classpath:examples\/users\/eval.feature","packageQualifiedName":"examples.users.eval","loopIndex":-1,"relativePath":"examples\/users\/eval.feature","scenarioResults":[{"sectionIndex":0,"stepResults":[{"result":{"nanos":97821900,"millis":97.8219,"status":"passed"},"step":{"endLine":14,"line":5,"prefix":"*","docString":"var f= function(v){ return v * v}\nvar nums= [0,1,2,3,4]\nvar sqares = []\nfor(var n in nums) {\n    sqares.push(f(n))\n}\nkarate.set('temp',sqares)","index":0,"text":"eval"}},{"result":{"nanos":35408000,"millis":35.408,"status":"passed"},"step":{"line":15,"prefix":"*","index":1,"text":"match temp == [0,1,4,9,16]"}}],"executorName":"pool-1-thread-1","line":4,"name":"Eval Demo","description":"","durationMillis":133.2299,"startTime":1628825932057,"failed":false,"refId":"[1:4]","endTime":1628825932192,"exampleIndex":-1}],"callDepth":1,"name":"Eval funciton","description":"","resultDate":"2021-08-13 09:08:53 AM","durationMillis":133.2299,"passedCount":1}]},{"result":{"nanos":876700,"millis":0.8767,"status":"passed"},"step":{"line":9,"prefix":"Given","index":0,"text":"path \"\/api\/users?page=2\""}},{"result":{"nanos":1180460300,"millis":1180.4603,"status":"passed"},"step":{"line":10,"prefix":"When","index":1,"text":"method GET"},"stepLog":"09:08:52.873 request:\n1 > GET https:\/\/reqres.in\/api\/users%3Fpage=2\n1 > Host: reqres.in\n1 > Connection: Keep-Alive\n1 > User-Agent: Apache-HttpClient\/4.5.13 (Java\/11.0.12)\n1 > Accept-Encoding: gzip,deflate\n\n\n09:08:53.374 response time in milliseconds: 496\n1 < 200\n1 < Date: Fri, 13 Aug 2021 03:38:54 GMT\n1 < Content-Type: application\/json; charset=utf-8\n1 < Transfer-Encoding: chunked\n1 < Connection: keep-alive\n1 < x-powered-by: Express\n1 < access-control-allow-origin: *\n1 < etag: W\/\"2c1-N6Rqerxquq2kgQhL51EiSg4x0R8\"\n1 < via: 1.1 vegur\n1 < Cache-Control: max-age=14400\n1 < CF-Cache-Status: HIT\n1 < Age: 721\n1 < Expect-CT: max-age=604800, report-uri=\"https:\/\/report-uri.cloudflare.com\/cdn-cgi\/beacon\/expect-ct\"\n1 < Report-To: {\"endpoints\":[{\"url\":\"https:\\\/\\\/a.nel.cloudflare.com\\\/report\\\/v3?s=n%2BZ5J0vAFAOCsngSPKZaAxoYVil39x%2BqzEe5UcaZX%2BFRkmuTmcOBDCWR3SKXpB6%2Bwj0BJ%2BVrVtGeEIjc%2FuFuTaFqBU92g%2BYZ5j2CdGan%2BQdCdurM6hTbozTD7Kk%3D\"}],\"group\":\"cf-nel\",\"max_age\":604800}\n1 < NEL: {\"success_fraction\":0,\"report_to\":\"cf-nel\",\"max_age\":604800}\n1 < Vary: Accept-Encoding\n1 < Server: cloudflare\n1 < CF-RAY: 67dee9cd786c26b5-BLR\n1 < alt-svc: h3-27=\":443\"; ma=86400, h3-28=\":443\"; ma=86400, h3-29=\":443\"; ma=86400, h3=\":443\"; ma=86400\n{\"page\":1,\"per_page\":6,\"total\":12,\"total_pages\":2,\"data\":[{\"id\":1,\"name\":\"cerulean\",\"year\":2000,\"color\":\"#98B2D1\",\"pantone_value\":\"15-4020\"},{\"id\":2,\"name\":\"fuchsia rose\",\"year\":2001,\"color\":\"#C74375\",\"pantone_value\":\"17-2031\"},{\"id\":3,\"name\":\"true red\",\"year\":2002,\"color\":\"#BF1932\",\"pantone_value\":\"19-1664\"},{\"id\":4,\"name\":\"aqua sky\",\"year\":2003,\"color\":\"#7BC4C4\",\"pantone_value\":\"14-4811\"},{\"id\":5,\"name\":\"tigerlily\",\"year\":2004,\"color\":\"#E2583E\",\"pantone_value\":\"17-1456\"},{\"id\":6,\"name\":\"blue turquoise\",\"year\":2005,\"color\":\"#53B0AE\",\"pantone_value\":\"15-5217\"}],\"support\":{\"url\":\"https:\/\/reqres.in\/#support-heading\",\"text\":\"To keep ReqRes free, contributions towards server costs are appreciated!\"}}\n"},{"result":{"nanos":34900,"millis":0.0349,"status":"passed"},"step":{"line":11,"prefix":"Then","index":2,"text":"status 200"}},{"result":{"nanos":1433100,"millis":1.4331,"status":"passed"},"step":{"line":12,"prefix":"*","index":3,"text":"def userId = response.page"}},{"result":{"nanos":112769900,"millis":112.7699,"status":"passed"},"step":{"line":13,"prefix":"*","index":4,"text":"def callOnce = callonce read('JsonValidation.feature')"},"stepLog":"09:08:53.490 << lock released, cached callonce: read('JsonValidation.feature')\n","callResults":[{"failedCount":0,"prefixedPath":"classpath:examples\/users\/JsonValidation.feature","packageQualifiedName":"examples.users.JsonValidation","loopIndex":-1,"relativePath":"examples\/users\/JsonValidation.feature","scenarioResults":[{"sectionIndex":0,"stepResults":[{"result":{"nanos":729300,"millis":0.7293,"status":"passed"},"step":{"background":true,"line":5,"prefix":"*","index":0,"text":"url 'https:\/\/reqres.in\/api\/users\/'"},"stepLog":"09:08:53.382 >> lock acquired, begin callonce: read('JsonValidation.feature')\n"},{"result":{"nanos":2983900,"millis":2.9839,"status":"passed"},"step":{"line":7,"prefix":"Given","index":0,"text":"url 'https:\/\/reqres.in\/api\/users\/2'"}},{"result":{"nanos":74010200,"millis":74.0102,"status":"passed"},"step":{"line":8,"prefix":"When","index":1,"text":"method GET"},"stepLog":"09:08:53.403 request:\n1 > GET https:\/\/reqres.in\/api\/users\/2\n1 > Host: reqres.in\n1 > Connection: Keep-Alive\n1 > User-Agent: Apache-HttpClient\/4.5.13 (Java\/11.0.12)\n1 > Accept-Encoding: gzip,deflate\n\n\n09:08:53.474 response time in milliseconds: 71\n1 < 200\n1 < Date: Fri, 13 Aug 2021 03:38:55 GMT\n1 < Content-Type: application\/json; charset=utf-8\n1 < Transfer-Encoding: chunked\n1 < Connection: keep-alive\n1 < x-powered-by: Express\n1 < access-control-allow-origin: *\n1 < etag: W\/\"118-pbdwwFo9SKNhD3Lx5iHJyngpq00\"\n1 < via: 1.1 vegur\n1 < Cache-Control: max-age=14400\n1 < CF-Cache-Status: HIT\n1 < Age: 4544\n1 < Expect-CT: max-age=604800, report-uri=\"https:\/\/report-uri.cloudflare.com\/cdn-cgi\/beacon\/expect-ct\"\n1 < Report-To: {\"endpoints\":[{\"url\":\"https:\\\/\\\/a.nel.cloudflare.com\\\/report\\\/v3?s=LxbWqgrSHDASzFN1IX9Ypkteg%2FmfValelOsrCw9zT%2F1hdLjuZYfwUybR%2FJSvNN037iGF19KkVVMNV2a%2FUK89EdYpAXMzVwl0q4DgTef%2FPxkkeCiMrV3rtmEBRi8%3D\"}],\"group\":\"cf-nel\",\"max_age\":604800}\n1 < NEL: {\"success_fraction\":0,\"report_to\":\"cf-nel\",\"max_age\":604800}\n1 < Vary: Accept-Encoding\n1 < Server: cloudflare\n1 < CF-RAY: 67dee9ce3dd21d35-BLR\n1 < alt-svc: h3-27=\":443\"; ma=86400, h3-28=\":443\"; ma=86400, h3-29=\":443\"; ma=86400, h3=\":443\"; ma=86400\n{\"data\":{\"id\":2,\"email\":\"janet.weaver@reqres.in\",\"first_name\":\"Janet\",\"last_name\":\"Weaver\",\"avatar\":\"https:\/\/reqres.in\/img\/faces\/2-image.jpg\"},\"support\":{\"url\":\"https:\/\/reqres.in\/#support-heading\",\"text\":\"To keep ReqRes free, contributions towards server costs are appreciated!\"}}\n"},{"result":{"nanos":5597800,"millis":5.5978,"status":"passed"},"step":{"line":9,"prefix":"Then","index":2,"text":"match response == '#object'"}},{"result":{"nanos":1541000,"millis":1.541,"status":"passed"},"step":{"endLine":25,"line":10,"prefix":"*","docString":"{\n\"data\": {\n    \"id\": '#number',\n    \"email\": \"#string\",\n    \"first_name\": \"#string\",\n    \"last_name\": \"#string\",\n    \"avatar\": \"#string\"\n},\n\"support\": {\n    \"url\": \"#string\",\n    \"text\": \"#string\"\n}\n    }","index":3,"text":"def jsonSchemaExpected ="}},{"result":{"nanos":5105600,"millis":5.1056,"status":"passed"},"step":{"line":26,"prefix":"*","index":4,"text":"match response == jsonSchemaExpected"}}],"executorName":"pool-1-thread-1","line":6,"name":"Get a Single User and Verify its JSON Fields","description":"","durationMillis":89.9678,"startTime":1628825933398,"failed":false,"refId":"[1:6]","endTime":1628825933489,"exampleIndex":-1}],"callDepth":1,"name":"JSON Schema Validation","description":"","resultDate":"2021-08-13 09:08:53 AM","durationMillis":89.9678,"passedCount":1}]}],"line":8,"description":"","durationMillis":1470.2209,"failed":false,"tags":["debug"],"executorName":"pool-1-thread-1","name":"Get details of Users","startTime":1628825931865,"refId":"[1:8]","endTime":1628825933491,"exampleIndex":-1},{"sectionIndex":1,"stepResults":[{"result":{"nanos":853500,"millis":0.8535,"status":"passed"},"step":{"background":true,"line":5,"prefix":"*","index":0,"text":"url 'https:\/\/reqres.in'"},"stepLog":"09:08:51.946 karate.env system property was: null \n"},{"result":{"nanos":168567500,"millis":168.5675,"status":"passed"},"step":{"background":true,"line":6,"prefix":"*","index":1,"text":"def eval1 = call read('eval.feature')"},"callResults":[{"failedCount":0,"prefixedPath":"classpath:examples\/users\/eval.feature","packageQualifiedName":"examples.users.eval","loopIndex":-1,"relativePath":"examples\/users\/eval.feature","scenarioResults":[{"sectionIndex":0,"stepResults":[{"result":{"nanos":108801200,"millis":108.8012,"status":"passed"},"step":{"endLine":14,"line":5,"prefix":"*","docString":"var f= function(v){ return v * v}\nvar nums= [0,1,2,3,4]\nvar sqares = []\nfor(var n in nums) {\n    sqares.push(f(n))\n}\nkarate.set('temp',sqares)","index":0,"text":"eval"}},{"result":{"nanos":39430100,"millis":39.4301,"status":"passed"},"step":{"line":15,"prefix":"*","index":1,"text":"match temp == [0,1,4,9,16]"}}],"executorName":"pool-1-thread-2","line":4,"name":"Eval Demo","description":"","durationMillis":148.2313,"startTime":1628825932043,"failed":false,"refId":"[1:4]","endTime":1628825932192,"exampleIndex":-1}],"callDepth":1,"name":"Eval funciton","description":"","resultDate":"2021-08-13 09:08:53 AM","durationMillis":148.2313,"passedCount":1}]},{"result":{"nanos":1479800,"millis":1.4798,"status":"passed"},"step":{"line":16,"prefix":"Given","index":0,"text":"path \"\/api\/users\/2\""}},{"result":{"nanos":1909400,"millis":1.9094,"status":"passed"},"step":{"endLine":23,"line":17,"prefix":"And","docString":"{\n  \"name\": \"manoj\",\n  \"job\": \"zion resident\"\n}","index":1,"text":"request"}},{"result":{"nanos":1600349900,"millis":1600.3499,"status":"passed"},"step":{"line":24,"prefix":"When","index":2,"text":"method PATCH"},"stepLog":"09:08:52.873 request:\n1 > PATCH https:\/\/reqres.in\/api\/users\/2\n1 > Content-Type: application\/json; charset=UTF-8\n1 > Content-Length: 38\n1 > Host: reqres.in\n1 > Connection: Keep-Alive\n1 > User-Agent: Apache-HttpClient\/4.5.13 (Java\/11.0.12)\n1 > Accept-Encoding: gzip,deflate\n{\"name\":\"manoj\",\"job\":\"zion resident\"}\n\n09:08:53.797 response time in milliseconds: 923\n1 < 200\n1 < Date: Fri, 13 Aug 2021 03:38:55 GMT\n1 < Content-Type: application\/json; charset=utf-8\n1 < Transfer-Encoding: chunked\n1 < Connection: keep-alive\n1 < x-powered-by: Express\n1 < access-control-allow-origin: *\n1 < etag: W\/\"4d-oqwveEKr+L3exc3cUk4es7zOEJM\"\n1 < via: 1.1 vegur\n1 < CF-Cache-Status: DYNAMIC\n1 < Expect-CT: max-age=604800, report-uri=\"https:\/\/report-uri.cloudflare.com\/cdn-cgi\/beacon\/expect-ct\"\n1 < Report-To: {\"endpoints\":[{\"url\":\"https:\\\/\\\/a.nel.cloudflare.com\\\/report\\\/v3?s=dFK%2B1A5R5RDDSehdyb8VuxMsZhBSemLoYuSU0q26yR0N9MFg79hKguCyQzpNXY8z41OLI1bWbjpJG3cMH%2BbI8L2TFRXuaqFppomSfx8Hz9eztQx%2BJ6aqCPnwv0M%3D\"}],\"group\":\"cf-nel\",\"max_age\":604800}\n1 < NEL: {\"success_fraction\":0,\"report_to\":\"cf-nel\",\"max_age\":604800}\n1 < Server: cloudflare\n1 < CF-RAY: 67dee9cd7b731da1-BLR\n1 < alt-svc: h3-27=\":443\"; ma=86400, h3-28=\":443\"; ma=86400, h3-29=\":443\"; ma=86400, h3=\":443\"; ma=86400\n{\"name\":\"manoj\",\"job\":\"zion resident\",\"updatedAt\":\"2021-08-13T03:38:55.334Z\"}\n"},{"result":{"nanos":14500,"millis":0.0145,"status":"passed"},"step":{"line":25,"prefix":"Then","index":3,"text":"status 200"}},{"result":{"nanos":5817000,"millis":5.817,"status":"passed"},"step":{"line":26,"prefix":"Then","index":4,"text":"match response.job == \"zion resident\""}},{"result":{"nanos":73063600,"millis":73.0636,"status":"passed"},"step":{"line":27,"prefix":"*","index":5,"text":"def callonce2 = call read('JsonValidation.feature')"},"callResults":[{"failedCount":0,"prefixedPath":"classpath:examples\/users\/JsonValidation.feature","packageQualifiedName":"examples.users.JsonValidation","loopIndex":-1,"relativePath":"examples\/users\/JsonValidation.feature","scenarioResults":[{"sectionIndex":0,"stepResults":[{"result":{"nanos":741300,"millis":0.7413,"status":"passed"},"step":{"background":true,"line":5,"prefix":"*","index":0,"text":"url 'https:\/\/reqres.in\/api\/users\/'"}},{"result":{"nanos":588800,"millis":0.5888,"status":"passed"},"step":{"line":7,"prefix":"Given","index":0,"text":"url 'https:\/\/reqres.in\/api\/users\/2'"}},{"result":{"nanos":52410500,"millis":52.4105,"status":"passed"},"step":{"line":8,"prefix":"When","index":1,"text":"method GET"},"stepLog":"09:08:53.824 request:\n1 > GET https:\/\/reqres.in\/api\/users\/2\n1 > Host: reqres.in\n1 > Connection: Keep-Alive\n1 > User-Agent: Apache-HttpClient\/4.5.13 (Java\/11.0.12)\n1 > Accept-Encoding: gzip,deflate\n\n\n09:08:53.873 response time in milliseconds: 49\n1 < 200\n1 < Date: Fri, 13 Aug 2021 03:38:55 GMT\n1 < Content-Type: application\/json; charset=utf-8\n1 < Transfer-Encoding: chunked\n1 < Connection: keep-alive\n1 < x-powered-by: Express\n1 < access-control-allow-origin: *\n1 < etag: W\/\"118-pbdwwFo9SKNhD3Lx5iHJyngpq00\"\n1 < via: 1.1 vegur\n1 < Cache-Control: max-age=14400\n1 < CF-Cache-Status: HIT\n1 < Age: 4544\n1 < Expect-CT: max-age=604800, report-uri=\"https:\/\/report-uri.cloudflare.com\/cdn-cgi\/beacon\/expect-ct\"\n1 < Report-To: {\"endpoints\":[{\"url\":\"https:\\\/\\\/a.nel.cloudflare.com\\\/report\\\/v3?s=nKkO1ZiEkC8KRQGH%2FNDS%2BrwVin6keMpLjxFGUmmdxpsMhcx%2FWeGt%2BKZWYOAl%2BCPCN9mFe%2BTTbp9qelIhVGEb6jvJ5SVsqAdac74BRvaxFcG%2FDNf5ZKbd043c4fo%3D\"}],\"group\":\"cf-nel\",\"max_age\":604800}\n1 < NEL: {\"success_fraction\":0,\"report_to\":\"cf-nel\",\"max_age\":604800}\n1 < Vary: Accept-Encoding\n1 < Server: cloudflare\n1 < CF-RAY: 67dee9d0bef526b5-BLR\n1 < alt-svc: h3-27=\":443\"; ma=86400, h3-28=\":443\"; ma=86400, h3-29=\":443\"; ma=86400, h3=\":443\"; ma=86400\n{\"data\":{\"id\":2,\"email\":\"janet.weaver@reqres.in\",\"first_name\":\"Janet\",\"last_name\":\"Weaver\",\"avatar\":\"https:\/\/reqres.in\/img\/faces\/2-image.jpg\"},\"support\":{\"url\":\"https:\/\/reqres.in\/#support-heading\",\"text\":\"To keep ReqRes free, contributions towards server costs are appreciated!\"}}\n"},{"result":{"nanos":1059900,"millis":1.0599,"status":"passed"},"step":{"line":9,"prefix":"Then","index":2,"text":"match response == '#object'"}},{"result":{"nanos":422000,"millis":0.422,"status":"passed"},"step":{"endLine":25,"line":10,"prefix":"*","docString":"{\n\"data\": {\n    \"id\": '#number',\n    \"email\": \"#string\",\n    \"first_name\": \"#string\",\n    \"last_name\": \"#string\",\n    \"avatar\": \"#string\"\n},\n\"support\": {\n    \"url\": \"#string\",\n    \"text\": \"#string\"\n}\n    }","index":3,"text":"def jsonSchemaExpected ="}},{"result":{"nanos":649400,"millis":0.6494,"status":"passed"},"step":{"line":26,"prefix":"*","index":4,"text":"match response == jsonSchemaExpected"}}],"executorName":"pool-1-thread-2","line":6,"name":"Get a Single User and Verify its JSON Fields","description":"","durationMillis":55.8719,"startTime":1628825933821,"failed":false,"refId":"[1:6]","endTime":1628825933878,"exampleIndex":-1}],"callDepth":1,"name":"JSON Schema Validation","description":"","resultDate":"2021-08-13 09:08:53 AM","durationMillis":55.8719,"passedCount":1}]}],"line":15,"description":"","durationMillis":1852.0552,"failed":false,"tags":["debug"],"executorName":"pool-1-thread-2","name":"Update users Job","startTime":1628825931865,"refId":"[2:15]","endTime":1628825933878,"exampleIndex":-1}],"callDepth":0,"name":"Get the deatils of students","description":"","resultDate":"2021-08-13 09:08:53 AM","durationMillis":3322.2761,"passedCount":2}