{"failedCount":0,"prefixedPath":"classpath:examples\/users\/getCall.feature","packageQualifiedName":"examples.users.getCall","loopIndex":-1,"relativePath":"examples\/users\/getCall.feature","scenarioResults":[{"sectionIndex":0,"stepResults":[{"result":{"nanos":1430800,"millis":1.4308,"status":"passed"},"step":{"background":true,"line":5,"prefix":"*","index":0,"text":"url 'https:\/\/reqres.in'"},"stepLog":"09:07:32.137 karate.env system property was: null \n"},{"result":{"nanos":170991700,"millis":170.9917,"status":"passed"},"step":{"background":true,"line":6,"prefix":"*","index":1,"text":"def eval1 = call read('eval.feature')"},"callResults":[{"failedCount":0,"prefixedPath":"classpath:examples\/users\/eval.feature","packageQualifiedName":"examples.users.eval","loopIndex":-1,"relativePath":"examples\/users\/eval.feature","scenarioResults":[{"sectionIndex":0,"stepResults":[{"result":{"nanos":115000800,"millis":115.0008,"status":"passed"},"step":{"endLine":14,"line":5,"prefix":"*","docString":"var f= function(v){ return v * v}\nvar nums= [0,1,2,3,4]\nvar sqares = []\nfor(var n in nums) {\n    sqares.push(f(n))\n}\nkarate.set('temp',sqares)","index":0,"text":"eval"}},{"result":{"nanos":28202100,"millis":28.2021,"status":"passed"},"step":{"line":15,"prefix":"*","index":1,"text":"match temp == [0,1,4,9,16]"}}],"executorName":"pool-1-thread-1","line":4,"name":"Eval Demo","description":"","durationMillis":143.2029,"startTime":1628825852261,"failed":false,"refId":"[1:4]","endTime":1628825852405,"exampleIndex":-1}],"callDepth":1,"name":"Eval funciton","description":"","resultDate":"2021-08-13 09:07:33 AM","durationMillis":143.2029,"passedCount":1}]},{"result":{"nanos":829100,"millis":0.8291,"status":"passed"},"step":{"line":9,"prefix":"Given","index":0,"text":"path \"\/api\/users?page=2\""}},{"result":{"nanos":1130111700,"millis":1130.1117,"status":"passed"},"step":{"line":10,"prefix":"When","index":1,"text":"method GET"},"stepLog":"09:07:33.160 request:\n1 > GET https:\/\/reqres.in\/api\/users%3Fpage=2\n1 > Host: reqres.in\n1 > Connection: Keep-Alive\n1 > User-Agent: Apache-HttpClient\/4.5.13 (Java\/11.0.12)\n1 > Accept-Encoding: gzip,deflate\n\n\n09:07:33.536 response time in milliseconds: 373\n1 < 200\n1 < Date: Fri, 13 Aug 2021 03:37:35 GMT\n1 < Content-Type: application\/json; charset=utf-8\n1 < Transfer-Encoding: chunked\n1 < Connection: keep-alive\n1 < x-powered-by: Express\n1 < access-control-allow-origin: *\n1 < etag: W\/\"2c1-N6Rqerxquq2kgQhL51EiSg4x0R8\"\n1 < via: 1.1 vegur\n1 < Cache-Control: max-age=14400\n1 < CF-Cache-Status: HIT\n1 < Age: 642\n1 < Expect-CT: max-age=604800, report-uri=\"https:\/\/report-uri.cloudflare.com\/cdn-cgi\/beacon\/expect-ct\"\n1 < Report-To: {\"endpoints\":[{\"url\":\"https:\\\/\\\/a.nel.cloudflare.com\\\/report\\\/v3?s=vmwUEETVa3c3qFi75H4NsrPcmLAOqchTZV2c4Rf07DVBtCl8hxASOS3OQJ%2FYr7R7JWC86QF%2BGYMdiTnxnTUfojrorw2n%2BIaIak2od7JNJpLtgGqrdTo%2FSPJ%2FsNo%3D\"}],\"group\":\"cf-nel\",\"max_age\":604800}\n1 < NEL: {\"success_fraction\":0,\"report_to\":\"cf-nel\",\"max_age\":604800}\n1 < Vary: Accept-Encoding\n1 < Server: cloudflare\n1 < CF-RAY: 67dee7da8e2f1e08-BLR\n1 < alt-svc: h3-27=\":443\"; ma=86400, h3-28=\":443\"; ma=86400, h3-29=\":443\"; ma=86400, h3=\":443\"; ma=86400\n{\"page\":1,\"per_page\":6,\"total\":12,\"total_pages\":2,\"data\":[{\"id\":1,\"name\":\"cerulean\",\"year\":2000,\"color\":\"#98B2D1\",\"pantone_value\":\"15-4020\"},{\"id\":2,\"name\":\"fuchsia rose\",\"year\":2001,\"color\":\"#C74375\",\"pantone_value\":\"17-2031\"},{\"id\":3,\"name\":\"true red\",\"year\":2002,\"color\":\"#BF1932\",\"pantone_value\":\"19-1664\"},{\"id\":4,\"name\":\"aqua sky\",\"year\":2003,\"color\":\"#7BC4C4\",\"pantone_value\":\"14-4811\"},{\"id\":5,\"name\":\"tigerlily\",\"year\":2004,\"color\":\"#E2583E\",\"pantone_value\":\"17-1456\"},{\"id\":6,\"name\":\"blue turquoise\",\"year\":2005,\"color\":\"#53B0AE\",\"pantone_value\":\"15-5217\"}],\"support\":{\"url\":\"https:\/\/reqres.in\/#support-heading\",\"text\":\"To keep ReqRes free, contributions towards server costs are appreciated!\"}}\n"},{"result":{"nanos":30300,"millis":0.0303,"status":"passed"},"step":{"line":11,"prefix":"Then","index":2,"text":"status 200"}},{"result":{"nanos":1574400,"millis":1.5744,"status":"passed"},"step":{"line":12,"prefix":"*","index":3,"text":"def userId = response.page"}},{"result":{"nanos":103072200,"millis":103.0722,"status":"passed"},"step":{"line":13,"prefix":"*","index":4,"text":"def callOnce = callonce read('JsonValidation.feature')"},"stepLog":"09:07:33.644 << lock released, cached callonce: read('JsonValidation.feature')\n","callResults":[{"failedCount":0,"prefixedPath":"classpath:examples\/users\/JsonValidation.feature","packageQualifiedName":"examples.users.JsonValidation","loopIndex":-1,"relativePath":"examples\/users\/JsonValidation.feature","scenarioResults":[{"sectionIndex":0,"stepResults":[{"result":{"nanos":1189400,"millis":1.1894,"status":"passed"},"step":{"background":true,"line":5,"prefix":"*","index":0,"text":"url 'https:\/\/reqres.in\/api\/users\/'"},"stepLog":"09:07:33.546 >> lock acquired, begin callonce: read('JsonValidation.feature')\n"},{"result":{"nanos":3359700,"millis":3.3597,"status":"passed"},"step":{"line":7,"prefix":"Given","index":0,"text":"url 'https:\/\/reqres.in\/api\/users\/2'"}},{"result":{"nanos":70028900,"millis":70.0289,"status":"passed"},"step":{"line":8,"prefix":"When","index":1,"text":"method GET"},"stepLog":"09:07:33.566 request:\n1 > GET https:\/\/reqres.in\/api\/users\/2\n1 > Host: reqres.in\n1 > Connection: Keep-Alive\n1 > User-Agent: Apache-HttpClient\/4.5.13 (Java\/11.0.12)\n1 > Accept-Encoding: gzip,deflate\n\n\n09:07:33.633 response time in milliseconds: 66\n1 < 200\n1 < Date: Fri, 13 Aug 2021 03:37:35 GMT\n1 < Content-Type: application\/json; charset=utf-8\n1 < Transfer-Encoding: chunked\n1 < Connection: keep-alive\n1 < x-powered-by: Express\n1 < access-control-allow-origin: *\n1 < etag: W\/\"118-pbdwwFo9SKNhD3Lx5iHJyngpq00\"\n1 < via: 1.1 vegur\n1 < Cache-Control: max-age=14400\n1 < CF-Cache-Status: HIT\n1 < Age: 4464\n1 < Expect-CT: max-age=604800, report-uri=\"https:\/\/report-uri.cloudflare.com\/cdn-cgi\/beacon\/expect-ct\"\n1 < Report-To: {\"endpoints\":[{\"url\":\"https:\\\/\\\/a.nel.cloudflare.com\\\/report\\\/v3?s=jU%2BUgfifUI%2FYmerYmM1ObKjs55sRuzUfyAkwU0XT1aiyJU8AxcQgObFDTJlyPyhH09WKYmf4dTQPyKoYWoHluJphi5VxjvV0DF3mC6D3F6spAcxGgTeTyp2C6kA%3D\"}],\"group\":\"cf-nel\",\"max_age\":604800}\n1 < NEL: {\"success_fraction\":0,\"report_to\":\"cf-nel\",\"max_age\":604800}\n1 < Vary: Accept-Encoding\n1 < Server: cloudflare\n1 < CF-RAY: 67dee7db3f841e08-BLR\n1 < alt-svc: h3-27=\":443\"; ma=86400, h3-28=\":443\"; ma=86400, h3-29=\":443\"; ma=86400, h3=\":443\"; ma=86400\n{\"data\":{\"id\":2,\"email\":\"janet.weaver@reqres.in\",\"first_name\":\"Janet\",\"last_name\":\"Weaver\",\"avatar\":\"https:\/\/reqres.in\/img\/faces\/2-image.jpg\"},\"support\":{\"url\":\"https:\/\/reqres.in\/#support-heading\",\"text\":\"To keep ReqRes free, contributions towards server costs are appreciated!\"}}\n"},{"result":{"nanos":4275100,"millis":4.2751,"status":"passed"},"step":{"line":9,"prefix":"Then","index":2,"text":"match response == '#object'"}},{"result":{"nanos":534500,"millis":0.5345,"status":"passed"},"step":{"endLine":25,"line":10,"prefix":"*","docString":"{\n\"data\": {\n    \"id\": '#number',\n    \"email\": \"#string\",\n    \"first_name\": \"#string\",\n    \"last_name\": \"#string\",\n    \"avatar\": \"#string\"\n},\n\"support\": {\n    \"url\": \"#string\",\n    \"text\": \"#string\"\n}\n    }","index":3,"text":"def jsonSchemaExpected ="}},{"result":{"nanos":1568100,"millis":1.5681,"status":"passed"},"step":{"line":26,"prefix":"*","index":4,"text":"match response == jsonSchemaExpected"}}],"executorName":"pool-1-thread-1","line":6,"name":"Get a Single User and Verify its JSON Fields","description":"","durationMillis":80.9557,"startTime":1628825853559,"failed":false,"refId":"[1:6]","endTime":1628825853641,"exampleIndex":-1}],"callDepth":1,"name":"JSON Schema Validation","description":"","resultDate":"2021-08-13 09:07:33 AM","durationMillis":80.9557,"passedCount":1}]}],"line":8,"description":"","durationMillis":1408.0402,"failed":false,"tags":["debug"],"executorName":"pool-1-thread-1","name":"Get details of Users","startTime":1628825852066,"refId":"[1:8]","endTime":1628825853644,"exampleIndex":-1},{"sectionIndex":1,"stepResults":[{"result":{"nanos":1246600,"millis":1.2466,"status":"passed"},"step":{"background":true,"line":5,"prefix":"*","index":0,"text":"url 'https:\/\/reqres.in'"},"stepLog":"09:07:32.137 karate.env system property was: null \n"},{"result":{"nanos":171294100,"millis":171.2941,"status":"passed"},"step":{"background":true,"line":6,"prefix":"*","index":1,"text":"def eval1 = call read('eval.feature')"},"callResults":[{"failedCount":0,"prefixedPath":"classpath:examples\/users\/eval.feature","packageQualifiedName":"examples.users.eval","loopIndex":-1,"relativePath":"examples\/users\/eval.feature","scenarioResults":[{"sectionIndex":0,"stepResults":[{"result":{"nanos":107722300,"millis":107.7223,"status":"passed"},"step":{"endLine":14,"line":5,"prefix":"*","docString":"var f= function(v){ return v * v}\nvar nums= [0,1,2,3,4]\nvar sqares = []\nfor(var n in nums) {\n    sqares.push(f(n))\n}\nkarate.set('temp',sqares)","index":0,"text":"eval"}},{"result":{"nanos":33569900,"millis":33.5699,"status":"passed"},"step":{"line":15,"prefix":"*","index":1,"text":"match temp == [0,1,4,9,16]"}}],"executorName":"pool-1-thread-2","line":4,"name":"Eval Demo","description":"","durationMillis":141.2922,"startTime":1628825852256,"failed":false,"refId":"[1:4]","endTime":1628825852405,"exampleIndex":-1}],"callDepth":1,"name":"Eval funciton","description":"","resultDate":"2021-08-13 09:07:33 AM","durationMillis":141.2922,"passedCount":1}]},{"result":{"nanos":1131700,"millis":1.1317,"status":"passed"},"step":{"line":16,"prefix":"Given","index":0,"text":"path \"\/api\/users\/2\""}},{"result":{"nanos":1732300,"millis":1.7323,"status":"passed"},"step":{"endLine":23,"line":17,"prefix":"And","docString":"{\n  \"name\": \"manoj\",\n  \"job\": \"zion resident\"\n}","index":1,"text":"request"}},{"result":{"nanos":1501018900,"millis":1501.0189,"status":"passed"},"step":{"line":24,"prefix":"When","index":2,"text":"method PATCH"},"stepLog":"09:07:33.161 request:\n1 > PATCH https:\/\/reqres.in\/api\/users\/2\n1 > Content-Type: application\/json; charset=UTF-8\n1 > Content-Length: 38\n1 > Host: reqres.in\n1 > Connection: Keep-Alive\n1 > User-Agent: Apache-HttpClient\/4.5.13 (Java\/11.0.12)\n1 > Accept-Encoding: gzip,deflate\n{\"name\":\"manoj\",\"job\":\"zion resident\"}\n\n09:07:33.905 response time in milliseconds: 743\n1 < 200\n1 < Date: Fri, 13 Aug 2021 03:37:35 GMT\n1 < Content-Type: application\/json; charset=utf-8\n1 < Transfer-Encoding: chunked\n1 < Connection: keep-alive\n1 < x-powered-by: Express\n1 < access-control-allow-origin: *\n1 < etag: W\/\"4d-ZFE9ldez3Ahs6Hd9TMp87gp+yqg\"\n1 < via: 1.1 vegur\n1 < CF-Cache-Status: DYNAMIC\n1 < Expect-CT: max-age=604800, report-uri=\"https:\/\/report-uri.cloudflare.com\/cdn-cgi\/beacon\/expect-ct\"\n1 < Report-To: {\"endpoints\":[{\"url\":\"https:\\\/\\\/a.nel.cloudflare.com\\\/report\\\/v3?s=OgnHAOiyXr8sGVqB1BzA2JHM2znW%2FGTZBCO3%2BR%2F0znt2d%2Bj219UwE1WHXrr%2FgvpatjYJonNYv9KVkzAtJDxDjlusIYmxpvWN3WjoRvvdDHoh541cdS4WWw0AJLA%3D\"}],\"group\":\"cf-nel\",\"max_age\":604800}\n1 < NEL: {\"success_fraction\":0,\"report_to\":\"cf-nel\",\"max_age\":604800}\n1 < Server: cloudflare\n1 < CF-RAY: 67dee7da8e311e08-BLR\n1 < alt-svc: h3-27=\":443\"; ma=86400, h3-28=\":443\"; ma=86400, h3-29=\":443\"; ma=86400, h3=\":443\"; ma=86400\n{\"name\":\"manoj\",\"job\":\"zion resident\",\"updatedAt\":\"2021-08-13T03:37:35.434Z\"}\n"},{"result":{"nanos":15300,"millis":0.0153,"status":"passed"},"step":{"line":25,"prefix":"Then","index":3,"text":"status 200"}},{"result":{"nanos":3031100,"millis":3.0311,"status":"passed"},"step":{"line":26,"prefix":"Then","index":4,"text":"match response.job == \"zion resident\""}},{"result":{"nanos":5043700,"millis":5.0437,"status":"passed"},"step":{"line":27,"prefix":"*","index":5,"text":"def callonce2 = callonce read('JsonValidation.feature')"}}],"line":15,"description":"","durationMillis":1684.5137,"failed":false,"tags":["debug"],"executorName":"pool-1-thread-2","name":"Update users Job","startTime":1628825852066,"refId":"[2:15]","endTime":1628825853921,"exampleIndex":-1}],"callDepth":0,"name":"Get the deatils of students","description":"","resultDate":"2021-08-13 09:07:33 AM","durationMillis":3092.5539,"passedCount":2}